Simulating Multivariate Data with holodeck
…
Create datasets

We can chain several sim_* functions to quickly create a
dataframe.

df2 <- 
  sim_cat(n_obs = 40, n_groups = 3, name = "factor") %>% 
  sim_covar(n_vars = 3, var = 1, cov = 0.0, name = "noise") %>% 
  group_by(factor) %>% 
  sim_discr(n_vars = 5, var = 1, cov = 0, group_means = c(-1, 0, 1), name  = "signal") %>%
  sim_discr(n_vars = 5, var = 1, cov = 0, group_means = c(0, 0.5, 1), name = "signal2") %>% 
  ungroup()
df2
#> # A tibble: 40 × 14
#>    factor noise_1 noise_2  noise_3 signal_1 signal_2 signal_3 signal_4 signal_5
#>    <chr>    <dbl>   <dbl>    <dbl>    <dbl>    <dbl>    <dbl>    <dbl>    <dbl>
#>  1 a       0.0121  -2.17   0.275    -1.27     -1.76   -0.0391   -2.64    -1.80 
#>  2 a      -0.376    0.895 -0.714    -1.16     -1.44   -1.48     -2.49    -2.44 
#>  3 a       2.01    -0.446 -0.00426  -0.406    -1.43   -1.67     -3.04    -0.804
#>  4 a       0.607   -2.79  -0.388    -1.08     -1.28   -2.34     -0.681    0.565
#>  5 a       0.693    1.42  -0.796    -0.153    -1.21    0.377    -1.59    -0.968
#>  6 a      -1.72    -1.51   0.968    -1.34     -0.510  -1.29      0.347   -1.65 
#>  7 a      -0.430   -1.53   0.940    -1.94     -1.19   -0.589    -3.32    -0.333
#>  8 a      -0.569    0.329 -1.16     -2.06     -1.24    0.0146   -2.18    -0.673
#>  9 a       0.925   -0.507 -0.834     0.0797   -0.132   0.344    -1.56    -1.72 
#> 10 a      -0.399   -0.676 -0.518    -1.09      0.486   0.337    -0.560   -2.02 
#> # ℹ 30 more rows
#> # ℹ 5 more variables: signal2_1 <dbl>, signal2_2 <dbl>, signal2_3 <dbl>,
#> #   signal2_4 <dbl>, signal2_5 <dbl>
…
